"(" + "'_nick_ would say the best Christmas movie is:','Home Alone','Its a Wonderful Life','Christmas Vacation','Die Hard',0,0" + ")," +
"(" + "'When _nick_ engages in small talk, its usually about:','Weather','Sports','Politics','Themself',0,0" + ")," +
"(" + "'What would _nick_ like to experience?','World peace','Encounter of aliens','Technology to talk to animals','A zombie invasion',0,0" + ")," +
"(" + "'How does _nick_ rates movies?','Out of 5 stars','Thumbs up or thumbs down','Emojis','They like everything',0,0" + ")," +
"(" + "'What if _nick_ emoji of choice?','Thumbs up','Smiling face with hearth-shaped eyes','Heart','Face with tears of joy',0,0" + ")," +
"(" + "'_nick_ would like to have now a ...?','Full phone battery','Bigger screen','Better company','Stable internet connection',0,0" + ")," +
"(" + "'What is _nick_ favorite season of the year?','Winter','Spring','Summer','Autumn',0,0" + ")," +
"(" + "'What is _nick_ most commonly occuring nightmare?','Losing theeir teeth','Public nudity','Paranormal experience','Being attacked or chased',0,0" + ")," +
"(" + "'If _nick_ gets invited to an event, _nick_ replies:','Yes','No','I have a funeral','Maybe',0,0" + ")," +
"(" + "'What is _nick_ favourite kind of sandwich?','Egg','Deli meat','Peanut butter','Knuckle',0,0" + ")," +
"(" + "'Who is _nick_ favourite Stephen?','Stephen Hawking','Stephen King','Stephen Colbert','Stephen Spielberg',0,0" + ")," +
"(" + "'Who is _nick_ favourite female avenger?','Black Widow','Scarlet Witch','Captain Marvel','Shuri',0,0" + ")," +
"(" + "'question_text','answer1','answer2','answer3','answer4',0,0" + ")," +
"(" + "'question_text','answer1','answer2','answer3','answer4',0,0" + ")," +